<?xml version="1.0" encoding="utf-8"?>
<!-- Generator: Adobe Illustrator 22.0.1, SVG Export Plug-In . SVG Version: 6.00 Build 0)  -->
<svg version="1.1" id="Capa_1" xmlns="http://www.w3.org/2000/svg" xmlns:xlink="http://www.w3.org/1999/xlink" x="0px" y="0px"
	 viewBox="0 0 46 68" style="enable-background:new 0 0 46 68;" xml:space="preserve">
<style type="text/css">
	.st0{fill:#FFCD00;}
	.st1{fill:#FFFFFF;}
	.st2{fill:#C4C4C4;}
</style>
<g>
	<path class="st0" d="M14.1,20.2c0.6,0.9,1.8,1.2,2.7,0.6c1.9-1.1,4.1-1.7,6.4-1.7c2.2,0,4.4,0.6,6.2,1.6c0.9,0.5,2.1,0.2,2.6-0.6
		l0,0c0.7-1,0.4-2.4-0.7-3c-2.4-1.3-5.2-2.1-8.1-2.1c-3,0-5.9,0.8-8.3,2.2C13.7,17.9,13.4,19.2,14.1,20.2L14.1,20.2z"/>
	<path class="st1" d="M33.1,21.6L33.1,21.6c-0.5,0.8-0.5,1.8,0.1,2.5c1.9,2.4,3,5.5,2.8,8.9c-0.4,6.4-5.6,11.7-12,12.1
		c-7.6,0.5-13.9-5.5-13.9-12.9c0-3,1-5.8,2.7-7.9c0.6-0.7,0.6-1.7,0.1-2.4l0,0c-0.8-1.1-2.4-1.2-3.3-0.1C7.4,24.5,6,28.2,6,32.2
		c0,7.4,10.5,24.9,15,31.2c1,1.4,3.1,1.4,4,0c4.5-6.3,15-23.8,15-31.2c0-4.1-1.4-7.8-3.8-10.7C35.5,20.4,33.9,20.5,33.1,21.6z"/>
	<path class="st0" d="M10.8,15.5c0.6,0.9,1.9,1.2,2.8,0.6c2.8-1.6,6-2.6,9.4-2.6c3.4,0,6.6,0.9,9.4,2.5c1,0.6,2.2,0.3,2.8-0.6l0,0
		c0.7-1,0.4-2.4-0.6-3c-3.4-2-7.3-3.1-11.5-3.1c-4.2,0-8.2,1.1-11.6,3.1C10.4,13.1,10.1,14.5,10.8,15.5L10.8,15.5z"/>
	<g>
		<path class="st0" d="M7.5,10.7c0.6,0.9,1.8,1.1,2.7,0.6c3.7-2.3,8.1-3.6,12.8-3.6c4.7,0,9.1,1.3,12.8,3.6c0.9,0.6,2.1,0.3,2.7-0.6
			v0c0.7-1,0.4-2.3-0.6-2.9C33.6,5.1,28.5,3.6,23,3.6c-5.5,0-10.6,1.5-14.9,4.2C7.1,8.4,6.8,9.7,7.5,10.7L7.5,10.7z"/>
	</g>
	<g>
		<g>
			<path class="st2" d="M8.5,43.9c-2.6-3.2-4.1-7.3-4.1-11.7c0-4.9,1.9-9.3,5-12.7c0.7-0.7,0.8-1.8,0.2-2.7l0,0
				c-0.8-1.1-2.4-1.2-3.3-0.2c-3.8,4.1-6.1,9.5-6.1,15.6c0,9.1,5.3,17,13.1,20.7C11.6,50,9.9,46.9,8.5,43.9z"/>
			<path class="st2" d="M36.4,16.8L36.4,16.8c-0.6,0.8-0.5,1.9,0.2,2.7c3.1,3.3,5,7.8,5,12.7c0,4.2-1.4,8-3.7,11.1
				c-1.4,3.1-3.1,6.4-4.9,9.4c7.6-3.7,12.8-11.5,12.8-20.5c0-6-2.3-11.5-6.1-15.6C38.8,15.6,37.2,15.7,36.4,16.8z"/>
		</g>
	</g>
	<path class="st0" d="M26.6,38.3L22,34.9l-5.7,0.5c-0.4,0-0.6-0.4-0.3-0.7l8.3-9.1c0.2-0.2,0.6-0.1,0.7,0.2l2.3,12.1
		C27.3,38.3,26.9,38.5,26.6,38.3z"/>
</g>
</svg>
